…
    ## # A tibble: 3 × 3
    ##   country_code year  population
    ##   <chr>        <chr>      <dbl>
    ## 1 ABW          1960       54208
    ## 2 ABW          1961       55434
    ## 3 ABW          1962       56234

``` r
# check for rows with incomplete cases
pop_data %>% 
  filter(!complete.cases(.))
```

    ## # A tibble: 103 × 3
    ##    country_code year  population
    ##    <chr>        <chr>      <dbl>
    ##  1 ERI          2012          NA
    ##  2 ERI          2013          NA
    ##  3 ERI          2014          NA
    ##  4 ERI          2015          NA
    ##  5 ERI          2016          NA
    ##  6 ERI          2017          NA
    ##  7 ERI          2018          NA
    ##  8 ERI          2019          NA
    ##  9 ERI          2020          NA
    ## 10 INX          1960          NA
    ## # … with 93 more rows
…
